DSBA 5122: Visual Analytics
…
```r
top_terms <- beta %>%
  group_by(topic) %>%
  top_n(8, beta) %>%
  ungroup() %>%
  arrange(topic, -beta)

top_terms
```

```
## # A tibble: 161 x 3
##    topic term            beta
##    <int> <chr>          <dbl>
##  1     1 today         0.0668
##  2     1 got           0.0500
##  3     1 ready         0.0290
##  4     1 getting       0.0267
##  5     1 little        0.0239
##  6     1 done          0.0170
##  7     1 open          0.0134
##  8     1 call          0.0119
##  9     2 #keeppounding 0.0527
## 10     2 #charlotte    0.0472
## # … with 151 more rows
```
…
