Quiz 2 | DSBA 5122: Visual Analytics
…
## # A tibble: 6 x 6
##   country     continent  year lifeExp      pop gdpPercap
##   <fct>       <fct>     <int>   <dbl>    <int>     <dbl>
## 1 Afghanistan Asia       1952    28.8  8425333      779.
## 2 Afghanistan Asia       1957    30.3  9240934      821.
## 3 Afghanistan Asia       1962    32.0 10267083      853.
## 4 Afghanistan Asia       1967    34.0 11537966      836.
## 5 Afghanistan Asia       1972    36.1 13079460      740.
## 6 Afghanistan Asia       1977    38.4 14880372      786.

Question 3

How would you use dplyr functions to rank Life Expectancy (lifeExp) in descending order by country in the gapminder dataset?

## # A tibble: 142 x 6
##    country     continent  year lifeExp       pop gdpPercap
##    <fct>       <fct>     <int>   <dbl>     <int>     <dbl>
##  1 Iceland     Europe     1977    76.1    221823    19655.
##  2 Sweden      Europe     1977    75.4   8251648    18856.
##  3 Switzerland Europe     1977    75.4   6316424    26982.
##  4 Japan       Asia       1977    75.4 113872473    16610.
##  5 Norway      Europe     1977    75.4   4043205    23311.
##  6 Netherlands Europe     1977    75.2  13852989    21209.
##  7 Denmark     Europe     1977    74.7   5088419    20423.
##  8 Spain       Europe     1977    74.4  36439000    13237.
##  9 Canada      Americas   1977    74.2  23796400    22091.
## 10 France      Europe     1977    73.8  53165019    18293.
## # … with 132 more rows
…
