Playing with LEGO
…
2019-01-06

Lets look at some interesting patterns in the history of LEGO! Well be using data from the lego package, along with functions in tidyverse packages (specifically ggplot2 and dplyr).

library(tidyverse)
library(lego)  # Installed from https://github.com/seankross/lego
library(ggstance)

Look at the raw data

The lego package provides a helpful dataset with dozens of interesting variables.

legosets

## # A tibble: 6,172 x 14
##    Item_Number Name   Year Theme Subtheme Pieces Minifigures Image_URL
##    <chr>       <chr> <int> <chr> <chr>     <int>       <int> <chr>    
##  1 10246       Dete  2015 Adva Modular   2262           6 http://i
##  2 10247       Ferr  2015 Adva Fairgro   2464          10 http://i
##  3 10248       Ferr  2015 Adva Vehicles   1158          NA http://i
##  4 10249       Toy   2015 Adva Winter     898          NA http://i
##  5 10581       Ducks  2015 Duplo Forest      13           1 http://i
##  6 10582       Anim  2015 Duplo Forest      39           2 http://i
##  7 10583       Fish  2015 Duplo Forest      32           2 http://i
##  8 10584       Fore  2015 Duplo Forest     105           3 http://i
##  9 10585       Mom   2015 Duplo ""           13           2 http://i
## 10 10586       Ice   2015 Duplo ""           11           2 http://i
## # ... with 6,162 more rows, and 6 more variables: GBP_MSRP <dbl>,
## #   USD_MSRP <dbl>, CAD_MSRP <dbl>, EUR_MSRP <dbl>, Packaging <chr>,
## #   Availability <chr>
…
LEGO set themes

In the 1990s, LEGO began partnering with famous brands and franchises to boost its own sales. First, lets see how many different themes LEGO now offers:

legosets %>% 
  distinct(Theme)

## # A tibble: 115 x 1
##    Theme           
##    <chr>           
##  1 Advanced Models 
##  2 Duplo           
##  3 Juniors         
##  4 Classic         
##  5 Architecture    
##  6 Minecraft       
##  7 Ideas           
##  8 Friends         
##  9 Legends of Chima
## 10 Star Wars       
## # ... with 105 more rows

There are 115 different themes! Are some more popular than others?

theme_counts <- legosets %>% 
  count(Theme, sort = TRUE) %>% 
  mutate(Theme = fct_inorder(Theme, ordered = TRUE))
theme_counts

## # A tibble: 115 x 2
##    Theme                       n
##    <ord>                   <int>
##  1 Duplo                     471
##  2 Star Wars                 379
##  3 Town                      314
##  4 Collectable Minifigures   311
##  5 City                      282
##  6 Bionicle                  276
##  7 Technic                   243
##  8 Creator                   219
##  9 Castle                    206
## 10 Racers                    195
## # ... with 105 more rows
…
